<!DOCTYPE svg PUBLIC "-//W3C//DTD SVG 20010904//EN" "http://www.w3.org/TR/2001/REC-SVG-20010904/DTD/svg10.dtd">
<svg version="1.0" xmlns="http://www.w3.org/2000/svg" width="645px" height="645px" viewBox="0 0 6450 6450" preserveAspectRatio="xMidYMid meet">
<g id="layer101" fill="#020202" stroke="none">
<path d="M1725 6096 c-104 -33 -191 -115 -236 -221 -28 -64 -29 -74 -29 -220 0 -84 -3 -160 -6 -169 -5 -13 -26 -16 -124 -16 -145 0 -175 -9 -191 -58 -8 -22 -14 -30 -16 -21 -6 25 -190 37 -207 14 -9 -13 -11 -9 -11 24 0 54 -23 76 -78 75 -56 -1 -97 -24 -138 -76 -31 -39 -34 -48 -34 -114 0 -49 5 -78 15 -90 8 -11 21 -30 29 -44 102 -180 141 -254 141 -266 0 -7 -18 -37 -40 -66 -22 -29 -40 -58 -40 -64 0 -5 -11 -32 -24 -60 -14 -27 -38 -98 -53 -159 -25 -100 -28 -125 -27 -272 1 -95 5 -168 11 -175 14 -17 36 -125 30 -142 -3 -8 -29 -19 -59 -26 -29 -7 -57 -16 -63 -20 -5 -4 -32 -15 -60 -24 -32 -11 -61 -30 -80 -53 -26 -32 -30 -44 -30 -97 0 -37 7 -75 17 -97 29 -60 41 -207 34 -410 -9 -236 -10 -240 -67 -255 -123 -31 -259 -139 -314 -249 -24 -50 -30 -75 -33 -153 -4 -91 12 -207 30 -218 4 -3 17 -23 28 -44 41 -81 177 -196 260 -221 49 -15 61 -38 79 -154 14 -85 58 -225 97 -312 13 -28 24 -54 24 -57 0 -10 108 -194 145 -246 107 -153 294 -343 425 -433 96 -66 148 -97 246 -146 137 -70 173 -85 249 -107 33 -9 67 -21 75 -26 14 -8 138 -36 265 -60 77 -14 481 -15 560 0 107 19 249 53 280 66 17 8 48 19 70 26 44 13 61 20 185 79 86 41 161 82 170 92 3 3 38 27 78 53 39 27 72 52 72 55 0 9 55 41 70 41 6 0 -2 -24 -19 -54 -47 -81 -58 -216 -26 -317 25 -77 127 -179 213 -213 120 -47 274 -27 362 47 16 14 33 27 37 29 16 7 65 80 88 133 14 30 27 55 30 55 3 0 58 -52 123 -116 145 -145 199 -175 312 -175 78 0 127 17 245 85 48 28 101 58 215 120 47 26 92 51 100 56 8 5 113 65 233 132 120 68 240 135 265 150 26 15 58 32 72 39 72 36 99 92 63 131 -15 17 -15 18 13 12 21 -4 39 1 64 18 19 13 51 32 70 41 47 24 74 40 81 51 4 5 17 -1 30 -13 32 -30 57 -27 141 20 111 63 161 105 199 167 33 55 34 59 34 162 0 83 -4 114 -19 145 -13 27 -277 299 -801 825 l-783 785 -5 76 c-10 152 -78 247 -265 372 -337 224 -582 309 -947 325 l-160 7 -7 75 c-23 236 -30 289 -45 330 -37 101 -11 216 91 396 25 44 48 99 52 122 10 60 -11 123 -55 166 -34 34 -92 55 -196 73 -50 9 -55 24 -55 167 0 409 -54 566 -228 663 -66 37 -69 38 -173 38 -100 0 -108 -2 -170 -33 -108 -57 -171 -138 -204 -265 -16 -58 -16 -75 -6 -123 7 -31 9 -60 4 -64 -11 -11 -185 -16 -201 -6 -8 5 -12 37 -12 94 0 48 -7 111 -15 141 -28 106 -150 225 -257 250 -64 14 -162 13 -213 -3z"/>
</g>
<g id="layer102" fill="#4a5159" stroke="none">
<path d="M1765 5928 c-56 -20 -119 -93 -130 -152 l-8 -37 204 5 c229 7 224 5 190 79 -41 90 -160 139 -256 105z"/>
<path d="M2731 5928 c-76 -21 -141 -107 -141 -184 l0 -37 48 7 c26 4 115 16 197 27 83 11 154 24 158 28 14 14 -23 79 -66 116 -60 51 -121 65 -196 43z"/>
<path d="M2801 5555 c-113 -15 -177 -28 -183 -37 -10 -15 0 -178 13 -194 5 -6 60 -14 121 -17 62 -4 150 -10 196 -13 l83 -7 -3 144 -3 144 -25 1 c-14 1 -103 -8 -199 -21z"/>
<path d="M1637 5553 c-4 -3 -7 -65 -7 -136 l0 -129 78 7 c42 4 133 10 202 14 l125 6 3 123 3 122 -199 0 c-109 0 -202 -3 -205 -7z"/>
<path d="M2228 5379 c-2 -31 1 -53 8 -56 6 -2 53 -2 105 -1 l94 3 3 53 3 52 -105 0 -104 0 -4 -51z"/>
<path d="M915 5398 c-5 -12 -27 -34 -47 -47 -21 -13 -38 -31 -38 -39 0 -13 12 -37 75 -144 6 -10 26 -47 45 -84 19 -36 40 -68 45 -70 6 -2 32 0 58 4 48 7 49 8 67 62 34 100 90 136 254 163 60 10 71 15 71 32 0 19 -7 20 -134 21 -149 1 -149 1 -193 83 -14 26 -23 31 -55 31 -21 0 -60 3 -88 6 -46 5 -51 4 -60 -18z"/>
<path d="M1985 5129 c-290 -12 -657 -63 -682 -95 -9 -12 -6 -23 14 -52 39 -57 100 -191 116 -256 9 -32 20 -63 24 -67 8 -8 1712 -14 1720 -6 2 2 12 37 23 76 11 40 48 124 81 187 33 63 57 119 54 123 -3 5 -49 16 -103 25 -53 9 -119 21 -147 26 -91 17 -245 30 -464 40 -240 11 -343 11 -636 -1z"/>
<path d="M1035 4828 c-16 -6 -45 -25 -63 -42 -38 -35 -97 -149 -89 -171 3 -7 25 -19 49 -25 24 -6 54 -16 68 -24 14 -7 57 -21 95 -31 39 -10 73 -22 76 -27 3 -5 24 -12 47 -15 40 -5 41 -5 51 33 15 53 14 76 -5 141 -22 75 -61 151 -84 163 -24 13 -106 12 -145 -2z"/>
<path d="M1440 4455 c-7 -9 -14 -52 -27 -154 -2 -20 -7 -85 -10 -144 l-6 -108 28 -29 c33 -34 46 -36 112 -14 83 28 273 65 438 85 384 45 860 5 1175 -101 14 -5 40 -12 58 -15 l32 -7 0 84 c0 101 -27 332 -47 402 -5 18 -31 18 -875 15 -563 -3 -873 -8 -878 -14z"/>
<path d="M833 4283 c4 -130 8 -158 34 -233 25 -72 67 -161 108 -229 15 -25 108 -131 114 -131 3 1 16 22 28 48 12 26 39 67 59 90 l36 42 1 217 2 218 -185 62 c-102 35 -189 63 -194 63 -4 0 -6 -66 -3 -147z"/>
<path d="M2140 3924 c-142 -9 -367 -43 -470 -71 -30 -8 -77 -21 -105 -28 -98 -26 -217 -73 -242 -96 -26 -25 -53 -70 -53 -89 0 -16 21 -12 89 15 266 108 747 139 1116 71 145 -27 296 -67 400 -106 108 -41 248 -104 329 -149 l98 -55 19 25 c70 88 62 218 -17 290 -63 57 -340 133 -649 178 -74 11 -422 21 -515 15z"/>
<path d="M3416 3892 c-4 -6 10 -31 31 -54 21 -24 48 -61 60 -83 28 -53 47 -154 40 -214 -6 -48 -5 -49 25 -55 17 -3 45 -6 62 -6 53 0 227 -47 315 -85 46 -19 87 -32 91 -28 4 4 21 33 37 63 17 30 48 86 69 124 69 122 84 149 84 158 0 12 -161 85 -260 118 -47 15 -125 35 -175 44 -119 21 -370 33 -379 18z"/>
<path d="M671 3780 c-46 -16 -86 -31 -88 -34 -3 -3 0 -20 6 -38 30 -93 43 -209 43 -390 0 -104 3 -188 8 -188 4 0 27 25 50 56 60 79 173 190 258 253 39 30 72 57 72 60 0 3 -32 38 -71 76 -39 39 -95 107 -126 153 -30 45 -58 82 -61 81 -4 0 -45 -13 -91 -29z"/>
<path d="M4372 3593 c-7 -16 -26 -50 -42 -78 -16 -27 -36 -67 -45 -87 -10 -21 -21 -38 -25 -38 -5 0 -12 -10 -16 -22 -4 -13 -18 -40 -33 -62 l-25 -38 29 -24 c17 -13 33 -23 36 -21 3 1 26 26 50 56 62 76 124 108 228 117 77 7 81 8 75 28 -4 12 -12 24 -18 28 -6 4 -7 8 -2 8 5 0 -1 12 -15 26 -31 34 -163 134 -175 134 -5 0 -15 -12 -22 -27z"/>
<path d="M1805 3574 c-181 -24 -291 -49 -375 -83 -222 -91 -287 -126 -400 -216 -91 -73 -205 -200 -257 -284 -37 -61 -103 -194 -103 -208 0 -8 -6 -24 -14 -36 -14 -22 -66 -228 -66 -260 0 -25 20 -31 35 -11 7 11 11 22 9 26 -3 5 0 8 5 8 6 0 11 5 11 11 0 6 20 40 45 74 74 104 183 172 329 205 77 17 115 21 165 16 76 -8 214 -41 251 -61 14 -7 133 -66 265 -131 494 -242 581 -255 1190 -184 250 30 407 24 495 -18 19 -9 37 -17 40 -17 32 -3 156 -97 210 -158 18 -20 38 -37 45 -37 6 0 19 17 28 38 9 20 28 55 41 77 54 88 59 105 46 165 -7 30 -16 60 -20 65 -4 6 -13 30 -20 55 -7 25 -30 75 -51 112 -21 36 -39 69 -39 71 0 14 -89 134 -147 199 -98 108 -226 214 -343 285 -33 20 -239 126 -250 129 -3 0 -16 5 -30 11 -14 6 -79 29 -145 51 -112 38 -157 49 -355 88 -72 14 -522 28 -595 18z m630 -277 c154 -48 254 -173 263 -326 5 -88 -22 -276 -50 -343 -36 -84 -103 -116 -208 -98 -386 63 -432 75 -479 123 -58 58 -60 95 -12 322 12 55 29 114 38 130 47 85 133 160 215 189 53 18 179 20 233 3z"/>
<path d="M2276 3128 c-24 -7 -57 -29 -86 -57 -42 -41 -49 -54 -64 -121 -9 -41 -19 -96 -22 -121 -8 -55 1 -62 86 -73 30 -4 99 -16 153 -27 155 -30 141 -38 167 100 22 115 22 120 5 164 -23 60 -75 112 -133 131 -51 18 -52 18 -106 4z"/>
<path d="M3492 3303 c-9 -3 30 -49 106 -127 132 -135 234 -279 297 -420 21 -47 42 -86 46 -86 5 0 20 21 34 48 14 26 35 65 48 87 12 22 49 86 81 143 47 83 56 105 46 117 -17 20 -153 106 -225 142 -95 48 -205 82 -301 93 -97 11 -112 11 -132 3z"/>
<path d="M4472 3194 c-32 -25 -72 -79 -99 -134 -7 -14 -26 -47 -43 -75 -16 -27 -36 -63 -45 -80 -8 -16 -28 -52 -44 -80 -16 -27 -39 -68 -50 -90 -12 -22 -29 -53 -39 -70 -10 -16 -34 -57 -52 -90 -18 -33 -42 -76 -53 -95 -11 -19 -47 -84 -81 -143 -34 -60 -73 -130 -87 -155 -15 -26 -37 -65 -48 -87 -37 -68 -70 -128 -96 -170 -13 -22 -34 -58 -45 -80 -12 -22 -34 -62 -50 -90 -54 -95 -90 -174 -90 -200 0 -14 7 -40 16 -58 19 -38 897 -922 936 -943 62 -33 106 -19 303 92 33 19 74 41 90 50 17 9 51 28 77 42 25 15 127 72 225 126 98 55 205 116 238 137 33 20 76 45 96 56 20 10 60 30 89 45 65 34 98 35 135 7 30 -25 25 -27 160 50 l70 39 1 47 c2 56 17 74 103 121 76 42 107 68 127 106 18 35 18 112 0 146 -13 23 -1568 1574 -1600 1594 -6 4 -33 8 -61 8 -39 0 -57 -6 -83 -26z m41 -498 c22 -17 36 -63 28 -93 -3 -12 -73 -90 -155 -173 -138 -139 -152 -150 -186 -150 -45 0 -78 32 -87 84 -6 37 -5 38 148 192 148 147 156 154 194 154 22 0 48 -7 58 -14z m232 -256 c56 -27 79 -49 110 -107 29 -57 34 -107 16 -172 -17 -60 -158 -202 -217 -219 -123 -35 -243 21 -291 137 -18 43 -12 145 11 188 22 42 146 160 186 177 49 21 136 20 185 -4z m375 -386 c92 -32 154 -122 153 -225 -1 -74 -20 -109 -109 -196 -53 -52 -84 -75 -116 -84 -138 -40 -269 34 -297 167 -11 51 -11 68 3 115 13 45 29 68 90 129 102 103 177 128 276 94z m378 -390 c43 -12 69 -29 105 -64 26 -26 47 -56 47 -68 0 -11 5 -24 10 -27 12 -8 13 -112 1 -119 -4 -3 -11 -19 -14 -35 -4 -19 -33 -57 -81 -105 -62 -61 -84 -77 -129 -90 -68 -20 -76 -20 -142 -1 -117 34 -189 183 -145 299 28 74 156 193 229 212 60 16 54 17 119 -2z"/>
<path d="M4577 2232 c-53 -54 -61 -91 -26 -116 28 -19 45 -12 102 43 48 46 60 84 35 109 -25 25 -63 13 -111 -36z"/>
<path d="M4972 1837 c-54 -55 -62 -79 -37 -107 24 -27 64 -12 117 43 52 54 58 75 30 100 -31 28 -55 20 -110 -36z"/>
<path d="M5434 1493 c-11 -2 -42 -26 -68 -52 -38 -39 -47 -54 -44 -77 2 -21 11 -31 31 -38 25 -9 32 -5 82 44 32 32 55 63 55 76 0 27 -29 51 -56 47z"/>
<path d="M408 2823 c-10 -2 -18 -9 -18 -14 0 -5 -3 -8 -7 -8 -21 3 -35 -5 -83 -48 -62 -56 -90 -114 -90 -187 0 -94 22 -146 94 -214 84 -81 96 -81 96 1 1 121 36 307 87 460 4 14 0 17 -28 16 -19 -1 -42 -3 -51 -6z"/>
<path d="M1035 2622 c-110 -40 -184 -101 -229 -187 -22 -41 -26 -63 -26 -129 0 -107 27 -164 117 -246 130 -117 236 -137 533 -101 248 30 381 41 490 41 119 0 263 -16 315 -34 22 -8 56 -17 75 -20 20 -3 52 -15 73 -26 20 -11 38 -20 39 -19 12 3 107 -41 352 -162 110 -55 203 -99 208 -99 5 0 30 -10 56 -22 41 -20 63 -23 172 -23 133 0 170 10 170 45 0 10 4 22 10 25 5 3 14 24 20 45 6 22 15 40 19 40 5 0 16 19 26 42 9 24 20 45 24 48 4 3 14 19 23 35 8 17 28 52 43 78 25 45 27 52 16 88 -7 21 -16 39 -21 39 -6 0 -10 6 -10 14 0 23 -110 114 -180 149 -64 32 -66 32 -210 32 -96 -1 -204 -9 -320 -25 -244 -33 -524 -34 -655 -2 -145 35 -394 127 -415 153 -3 3 -26 14 -52 24 -27 10 -48 21 -48 26 0 4 -22 15 -50 24 -27 9 -50 20 -50 24 0 4 -22 15 -50 25 -27 10 -50 22 -50 26 0 4 -11 11 -25 14 -14 4 -51 19 -83 33 -50 24 -71 27 -172 30 -63 1 -124 -1 -135 -5z m205 -177 c39 -20 45 -50 30 -153 -19 -130 -36 -162 -93 -176 -40 -10 -93 24 -101 65 -9 44 31 229 54 254 24 26 71 30 110 10z m2007 -355 c18 -11 35 -30 38 -42 8 -32 -20 -200 -40 -238 -29 -57 -101 -63 -145 -13 -26 30 -25 71 5 201 15 63 21 76 48 93 40 24 54 24 94 -1z"/>
<path d="M580 2184 c0 -43 34 -236 51 -294 76 -249 193 -448 378 -642 227 -239 492 -391 831 -479 77 -19 316 -49 398 -49 146 0 358 32 502 76 246 75 562 271 704 437 l47 55 -45 62 c-26 34 -46 67 -46 72 0 6 -11 7 -24 4 -78 -19 -177 -26 -246 -16 -102 14 -188 46 -365 133 -146 72 -153 74 -264 86 -226 25 -626 -25 -836 -105 -172 -65 -232 -102 -330 -201 -62 -62 -67 -65 -102 -60 -56 9 -72 33 -89 128 -18 102 -54 208 -108 314 l-41 80 -89 45 c-119 61 -201 143 -254 254 -22 44 -42 89 -46 99 -7 22 -26 22 -26 1z"/>
<path d="M1755 1813 c-126 -16 -290 -34 -400 -44 -71 -6 -131 -12 -133 -13 -1 -2 11 -36 28 -76 16 -40 30 -76 30 -81 0 -4 4 -19 10 -34 l10 -26 32 24 c18 14 43 28 56 32 12 3 22 10 22 15 0 5 24 18 53 29 28 11 70 29 92 40 21 12 47 21 57 21 10 0 26 4 36 10 36 20 306 77 395 83 15 1 27 7 27 12 0 10 -252 17 -315 8z"/>
</g>
<g id="layer103" fill="#81a1e6" stroke="none">
<path d="M1751 5917 c-60 -31 -103 -86 -105 -134 l-1 -37 190 3 c105 1 194 6 198 10 14 14 -4 58 -41 102 -66 77 -158 99 -241 56z"/>
<path d="M2702 5913 c-61 -30 -112 -109 -112 -175 0 -28 18 -30 118 -14 53 9 138 22 187 29 89 12 90 12 88 39 -2 38 -46 93 -94 117 -49 26 -139 28 -187 4z"/>
<path d="M2065 5129 c-238 -8 -424 -24 -555 -49 -52 -10 -119 -22 -148 -26 -30 -4 -56 -12 -58 -19 -3 -6 22 -63 54 -126 32 -63 66 -141 76 -174 10 -33 19 -66 22 -73 3 -10 180 -12 860 -10 l857 3 17 60 c18 63 90 222 122 267 22 32 23 54 3 62 -9 3 -82 17 -163 31 -270 47 -679 67 -1087 54z"/>
<path d="M1442 4428 c-15 -44 -30 -149 -38 -278 l-6 -105 29 -27 28 -27 65 20 c59 18 118 30 380 75 118 20 543 30 695 15 163 -15 322 -45 490 -91 77 -21 143 -36 147 -34 22 14 -15 414 -43 466 -9 17 -57 18 -872 18 l-863 0 -12 -32z"/>
<path d="M837 4413 c-12 -11 -7 -176 7 -258 18 -99 55 -201 103 -280 44 -73 132 -177 143 -170 5 3 18 25 29 48 12 24 36 61 55 83 l33 39 4 214 4 214 -25 8 c-48 14 -245 79 -285 93 -45 17 -59 19 -68 9z"/>
<path d="M3430 3890 c-12 -8 -10 -15 17 -42 17 -18 46 -59 64 -92 29 -53 33 -68 37 -161 l5 -103 61 -6 c116 -12 240 -46 352 -96 72 -33 63 -38 124 75 23 44 48 87 55 95 16 20 87 152 83 155 -34 30 -268 119 -368 141 -172 36 -398 55 -430 34z"/>
<path d="M1055 2619 c-16 -6 -38 -12 -48 -14 -20 -4 -92 -46 -117 -67 -66 -56 -110 -150 -110 -235 0 -146 130 -296 292 -337 103 -26 137 -26 370 1 298 35 646 39 768 10 83 -20 173 -50 237 -78 24 -11 46 -19 50 -19 4 0 119 -56 257 -124 334 -165 430 -190 566 -148 50 16 55 21 66 57 6 22 35 80 63 128 28 49 51 90 51 92 0 2 16 31 36 65 l36 61 -22 41 c-50 96 -127 161 -235 198 -98 34 -161 34 -410 4 -192 -24 -268 -28 -460 -28 -189 0 -241 3 -290 17 -33 10 -84 25 -114 33 -30 8 -68 21 -85 28 -17 8 -69 31 -116 51 -47 20 -175 82 -285 136 -110 54 -231 108 -270 119 -74 21 -179 25 -230 9z m196 -178 c35 -35 38 -82 14 -208 -12 -62 -20 -83 -42 -102 -55 -48 -153 -3 -153 72 1 51 25 190 38 214 32 59 97 69 143 24z m2013 -362 c18 -21 26 -42 26 -67 0 -47 -27 -187 -40 -212 -24 -45 -100 -54 -145 -18 -27 21 -27 23 -22 102 7 97 27 179 52 206 13 14 31 20 61 20 35 0 47 -5 68 -31z"/>
</g>
<g id="layer104" fill="#fa96bc" stroke="none">
<path d="M2230 5381 c0 -35 4 -51 16 -55 27 -10 182 -7 189 5 4 6 4 30 0 55 l-6 44 -100 0 -99 0 0 -49z"/>
<path d="M911 5389 c-8 -18 -27 -35 -47 -44 -43 -18 -43 -36 -1 -100 18 -28 52 -88 76 -135 24 -47 47 -88 50 -93 4 -4 31 -4 60 0 52 8 52 8 70 59 9 28 25 63 34 78 25 38 100 71 195 86 79 13 110 28 98 48 -3 5 -67 9 -142 9 l-137 0 -24 29 c-12 16 -23 36 -23 45 0 26 -23 39 -66 37 -21 0 -59 2 -84 5 -43 6 -46 4 -59 -24z"/>
<path d="M2185 3924 c-140 -8 -306 -27 -380 -44 -44 -10 -98 -21 -120 -24 -22 -4 -51 -11 -65 -16 -14 -4 -77 -25 -140 -44 -102 -32 -121 -41 -157 -78 -22 -24 -43 -53 -46 -66 -6 -26 -18 -28 128 19 172 54 198 60 314 75 157 20 471 20 635 -1 71 -8 132 -18 137 -20 4 -3 51 -14 104 -25 134 -28 280 -74 415 -133 63 -27 120 -53 125 -57 6 -4 45 -26 87 -49 l77 -42 26 35 c61 80 54 193 -17 265 -36 36 -58 47 -167 82 -153 49 -369 94 -511 108 -123 12 -360 20 -445 15z"/>
<path d="M1850 3574 c-14 -2 -63 -9 -110 -15 -467 -61 -855 -319 -1028 -684 -37 -78 -59 -142 -87 -248 -38 -148 -31 -207 13 -109 29 63 117 160 188 208 82 54 215 94 312 94 156 0 272 -38 548 -182 286 -148 461 -211 630 -228 99 -10 317 3 584 35 249 29 327 28 445 -7 114 -33 229 -105 289 -180 43 -53 53 -52 84 8 9 18 34 61 54 97 l37 63 -18 70 c-23 86 -84 236 -119 289 -15 22 -33 51 -40 65 -41 78 -295 333 -371 372 -14 7 -57 32 -95 56 -90 57 -258 136 -366 174 -99 34 -294 82 -424 104 -86 15 -469 28 -526 18z m552 -268 c91 -17 170 -66 224 -139 79 -107 94 -206 60 -407 -23 -137 -23 -136 -58 -175 -64 -74 -92 -77 -302 -40 -335 60 -332 59 -379 117 -41 51 -44 98 -13 257 30 155 60 223 129 292 56 55 95 75 180 94 78 17 78 17 159 1z"/>
</g>
<g id="layer105" fill="#a6d5ed" stroke="none">
<path d="M2070 5128 c-212 -8 -266 -12 -293 -23 -10 -4 -33 -5 -52 -2 -19 3 -37 1 -41 -5 -4 -6 -24 -7 -49 -3 -28 4 -46 2 -50 -5 -4 -6 -17 -10 -28 -9 -12 1 -35 -3 -51 -10 -16 -6 -53 -13 -82 -15 -29 -2 -58 -7 -64 -11 -6 -4 -18 -4 -26 -1 -40 15 -13 -74 51 -170 12 -17 34 -72 50 -122 l30 -92 855 2 855 3 3 25 c7 48 114 281 139 302 7 6 13 18 13 28 0 13 -21 21 -107 39 -60 12 -124 24 -143 27 -62 8 -124 15 -170 18 -25 2 -101 9 -170 15 -167 14 -431 18 -670 9z"/>
<path d="M840 4394 c-13 -32 -12 -101 1 -184 5 -36 12 -82 14 -103 3 -21 16 -61 30 -91 14 -29 25 -60 25 -68 0 -8 9 -27 20 -41 11 -14 20 -29 20 -33 0 -22 133 -178 143 -167 4 3 18 29 31 57 14 28 38 64 55 80 l30 29 -1 141 c0 77 3 173 6 211 l7 71 -58 18 c-32 10 -66 22 -75 27 -10 5 -24 9 -32 9 -7 0 -27 7 -42 15 -16 8 -39 15 -51 15 -12 0 -25 5 -28 10 -3 6 -17 10 -30 10 -13 0 -27 5 -30 10 -11 17 -25 11 -35 -16z"/>
<path d="M2254 4381 c-18 -4 -48 -18 -67 -30 -62 -38 -58 -88 11 -129 88 -51 244 -29 282 41 13 24 13 30 0 55 -8 15 -31 35 -50 44 -42 21 -132 30 -176 19z"/>
<path d="M3431 3891 c-11 -7 -6 -19 28 -58 69 -78 93 -141 94 -250 l1 -92 76 -6 c41 -4 82 -9 90 -12 8 -3 30 -7 48 -9 18 -2 47 -10 64 -18 17 -9 37 -16 45 -16 7 0 21 -4 31 -8 9 -5 40 -21 69 -35 58 -28 58 -28 91 38 42 86 56 111 74 137 24 34 78 138 78 149 0 4 -17 15 -37 24 -21 9 -45 21 -53 26 -8 5 -19 11 -25 13 -5 2 -48 18 -95 35 -47 18 -98 34 -115 36 -16 3 -74 13 -130 24 -55 10 -111 19 -125 20 -148 10 -197 10 -209 2z"/>
</g>
<g id="layer106" fill="#ebe0da" stroke="none">
<path d="M1057 4829 c-56 -13 -120 -79 -145 -147 -20 -53 -26 -74 -19 -70 1 1 13 -4 26 -11 13 -7 51 -21 85 -31 33 -11 101 -33 151 -49 49 -17 93 -31 97 -31 14 0 29 80 22 118 -7 45 -63 192 -78 209 -16 16 -94 23 -139 12z"/>
<path d="M2265 4381 c-133 -34 -154 -121 -41 -170 16 -7 58 -12 92 -12 114 0 188 52 164 115 -17 46 -144 85 -215 67z"/>
<path d="M4386 3603 c-4 -5 -14 -21 -22 -38 -21 -42 -49 -92 -61 -107 -6 -7 -31 -53 -57 -101 -46 -85 -47 -89 -30 -108 9 -10 21 -19 26 -19 4 0 36 29 71 65 49 52 74 70 122 87 34 11 80 20 107 19 25 -1 49 2 52 7 8 13 -34 91 -58 108 -11 8 -45 33 -75 54 -58 42 -63 45 -75 33z"/>
<path d="M1850 3574 c-14 -2 -63 -9 -110 -15 -467 -61 -855 -319 -1028 -684 -37 -78 -59 -142 -87 -248 -39 -150 -31 -207 14 -106 14 30 52 80 94 122 l70 72 7 76 c12 121 57 182 177 240 56 27 83 33 153 37 76 3 94 1 167 -26 170 -63 252 -152 269 -295 l7 -56 136 -70 c198 -100 333 -155 457 -186 98 -25 126 -27 272 -27 90 1 214 8 275 16 62 8 140 18 174 21 46 5 60 10 57 20 -8 19 41 99 78 130 190 160 536 99 652 -115 21 -39 28 -67 30 -116 1 -35 6 -65 12 -66 5 -1 26 28 46 63 l37 65 -18 69 c-23 87 -84 237 -119 290 -15 22 -33 51 -40 65 -41 78 -295 333 -371 372 -14 7 -57 32 -95 56 -90 57 -258 136 -366 174 -99 34 -294 82 -424 104 -86 15 -469 28 -526 18z m552 -268 c91 -17 170 -66 224 -139 79 -107 94 -206 60 -407 -23 -137 -23 -136 -58 -175 -64 -74 -92 -77 -302 -40 -335 60 -332 59 -379 117 -41 51 -44 98 -13 257 30 155 60 223 129 292 56 55 95 75 180 94 78 17 78 17 159 1z"/>
<path d="M4503 3209 c-28 -8 -66 -47 -100 -104 -15 -25 -208 -369 -253 -450 -18 -33 -41 -73 -51 -90 -10 -16 -36 -66 -59 -110 -23 -44 -47 -86 -52 -93 -6 -7 -18 -25 -27 -41 -32 -57 -341 -611 -371 -665 -33 -60 -40 -111 -20 -161 13 -35 842 -870 910 -918 65 -45 126 -43 210 8 35 21 81 48 104 60 76 40 276 151 355 197 25 16 55 32 66 38 11 6 34 18 50 28 45 28 122 71 195 110 36 19 97 53 135 75 80 46 123 51 157 20 26 -24 25 -25 153 46 83 47 84 47 78 89 -4 28 0 44 17 65 12 15 25 27 30 27 23 0 172 105 185 131 25 47 19 110 -15 160 -16 24 -376 387 -799 807 -764 757 -794 784 -851 781 -8 0 -29 -5 -47 -10z m21 -525 c18 -19 26 -37 26 -62 0 -31 -14 -49 -154 -191 -150 -151 -156 -156 -196 -156 -54 0 -90 38 -90 93 0 34 11 48 153 189 147 147 154 153 193 153 31 0 48 -6 68 -26z m231 -248 c83 -38 127 -110 127 -208 0 -75 -37 -142 -117 -215 -77 -70 -111 -86 -188 -85 -74 0 -132 26 -177 81 -59 71 -68 184 -21 266 35 62 117 140 174 165 59 27 139 26 202 -4z m424 -411 c89 -65 122 -170 85 -267 -21 -55 -134 -172 -196 -204 -148 -76 -328 40 -328 211 0 76 26 127 104 203 90 89 125 105 214 99 63 -5 78 -10 121 -42z m357 -371 c67 -35 83 -51 110 -109 30 -63 31 -134 3 -195 -24 -53 -129 -164 -179 -188 -51 -25 -175 -23 -215 2 -75 48 -108 97 -120 178 -11 76 16 140 94 222 109 114 207 143 307 90z"/>
<path d="M4581 2226 c-51 -51 -54 -57 -43 -81 19 -42 59 -34 117 25 49 50 50 51 35 78 -25 44 -49 39 -109 -22z"/>
<path d="M4972 1837 c-57 -58 -56 -117 3 -117 27 0 115 89 115 116 0 58 -61 59 -118 1z"/>
<path d="M5367 1442 c-62 -63 -61 -112 2 -112 35 0 111 75 111 110 0 65 -50 66 -113 2z"/>
<path d="M408 2810 c-120 -49 -184 -124 -194 -229 -6 -53 7 -127 25 -141 3 -3 19 -24 34 -47 26 -42 102 -102 113 -90 3 3 10 54 15 114 10 125 37 277 54 313 7 14 15 42 19 63 8 43 3 45 -66 17z"/>
<path d="M1630 1794 c-107 -12 -239 -26 -293 -30 -63 -4 -100 -11 -104 -19 -2 -7 7 -40 21 -74 14 -33 26 -66 26 -73 0 -7 7 -21 15 -32 13 -18 15 -17 47 5 18 13 35 26 38 29 10 11 116 62 170 81 109 40 191 65 235 74 72 15 130 25 178 31 57 6 71 16 41 28 -29 11 -179 4 -374 -20z"/>
</g>


</svg>